[{r:10,rx:1,y:-0.1,x:2},"\n↑"],
[{y:-0.65,x:1},"\nHome",{x:1},"\nEnd"],
[{y:-0.75},"Esc\n&"],
[{y:-0.9,x:4},"%\n|"],
[{y:-0.7,x:2},"\n↓"],
[{y:-0.65,x:1},"\n←",{x:1},"\n→"],
[{y:-0.75},"[\n(\nZet"],
[{y:-0.9,x:4},"]\n)"],
[{y:-0.7,x:2},"#\n!\nAlt"],
[{y:-0.65,x:1},"$\n>\nCtrl",{x:1},"@\n{\nMet"],
[{y:-0.75},"^\n<"],
[{y:-0.9,x:4},"`\n}"],
[{y:-2,x:6,h:1.5,r:30},"\nPrScr"],
[{y:0.85,x:2.5,r:10},"\nDel"],
[{y:-1.5,x:4.3,r:20},"\n\nLSft"],
[{r:-10,rx:7,ry:0.965,y:-0.2,x:2},"F8\n8"],
[{y:-0.65,x:1},"F7\n7",{x:1},"F9\n9"],
[{y:-0.75,x:4},"F10\n*"],
[{y:-0.9},"\\\n/"],
[{y:-0.7,x:2},"F5\n5"],
[{y:-0.65,x:1},"F4\n4",{x:1},"F6\n6"],
[{y:-0.75,x:4},"F11\n+\nZet"],
[{y:-0.9},"_\n-"],
[{y:-0.7,x:2},"F2\n2\nAlt"],
[{y:-0.65,x:1},"F1\n1\nMet",{x:1},"F3\n3\nCtrl"],
[{y:-0.75,x:4},"F12\n="],
[{y:-0.9},"~\n."],
[{y:-0.5,x:-2.25,h:1.5,r:-30},"\nTab"],
[{y:-0.65,x:1.5,r:-10},"\nBksp"],
[{x:-0.35,y:-0.65,r:-20},"\n0\nRSft"]
