[{r:10,rx:1,y:-0.1,x:2},"\nF"],
[{y:-0.65,x:1},"\nW",{x:1},"\nP"],
[{y:-0.75},"\nQ"],
[{y:-0.9,x:4},"\nB"],
[{y:-0.7,x:2},"\nS"],
[{y:-0.65,x:1},"\nR",{x:1},"\nT"],
[{y:-0.75},"\nA\nZet"],
[{y:-0.9,x:4},"\nG"],
[{y:-0.7,x:2},"\nC\nAlt"],
[{y:-0.65,x:1},"\nX\nCtrl",{x:1},"\nD\nMet"],
[{y:-0.75},"\nZ"],
[{y:-0.9,x:4},"\nV"],
[{y:-2,x:6,h:1.5,r:30},"\nSpc"],
[{y:0.85,x:2.5,r:10},"\nDel"],
[{y:-1.5,x:4.3,r:20},"\n\nLSft"],
[{r:-10,rx:7,ry:0.965,y:-0.2,x:2},"\nU"],
[{y:-0.65,x:1},"\nL",{x:1},"\nY"],
[{y:-0.75,x:4},";\n:"],
[{y:-0.9},"\nJ"],
[{y:-0.7,x:2},"\nE"],
[{y:-0.65,x:1},"\nN",{x:1},"\nI"],
[{y:-0.75,x:4},"\nO\nZet"],
[{y:-0.9},"\nM"],
[{y:-0.7,x:2},".\n,\nAlt"],
[{y:-0.65,x:1},"\nH\nMet",{x:1},"\"\n'\nCtrl"],
[{y:-0.75,x:4},"?\n/"],
[{y:-0.9},"\nK"],
[{y:-0.5,x:-2.25,h:1.5,r:-30},"\nEnter"],
[{y:-0.65,x:1.5,r:-10},"\nBksp"],
[{x:-0.35,y:-0.65,r:-20},"\n\nRSft"]
