[{r:10,rx:1,y:-0.1,x:2},"\n↑"],
[{y:-0.65,x:1},"\nHome",{x:1},"\nEnd"],
[{y:-0.75},"\n★Q"],
[{y:-0.9,x:4},"\nPgUp"],
[{y:-0.7,x:2},"\n↓"],
[{y:-0.65,x:1},"\n←",{x:1},"\n→"],
[{y:-0.75},"\n★A\nZet"],
[{y:-0.9,x:4},"\nPgDn"],
[{y:-0.7,x:2},"\n★C\nAlt"],
[{y:-0.65,x:1},"\n★X\nCtrl",{x:1},"\n★D\nMet"],
[{y:-0.75},"\n★Z"],
[{y:-0.9,x:4},"\n★V"],
[{y:-2,x:6,h:1.5,r:30},"\nPrScr"],
[{y:0.85,x:2.5,r:10},"\nDel"],
[{y:-1.5,x:4.3,r:20},"\n\nLSft"],
[{r:-10,rx:7,ry:0.965,y:-0.2,x:2},"\n★U"],
[{y:-0.65,x:1},"\n★L",{x:1},"\n★Y"],
[{y:-0.75,x:4},"⏭\n🔊"],
[{y:-0.9},"\n★J"],
[{y:-0.7,x:2},"\n★E"],
[{y:-0.65,x:1},"\n★N",{x:1},"\n★I"],
[{y:-0.75,x:4},"⏮\n🔉\nZet"],
[{y:-0.9},"\n★M"],
[{y:-0.7,x:2},"★.\n★,\nAlt"],
[{y:-0.65,x:1},"\n★H\nMet",{x:1},"★\"\n★'\nCtrl"],
[{y:-0.75,x:4},"⏯\n🔇"],
[{y:-0.9},"\n★K"],
[{y:-0.5,x:-2.25,h:1.5,r:-30},"\nTab"],
[{y:-0.65,x:1.5,r:-10},"\nBksp"],
[{x:-0.35,y:-0.65,r:-20},"\n\nRSft\n"]
